HTTP/1.1 200 OK
date: Sat, 11 Aug 2018 21:13:28 GMT
content-type: application/json
set-cookie: __cfduid=d1bc6a4b67e08ab102b262503971df21b1534022007; expires=Sun, 11-Aug-19 21:13:27 GMT; path=/; domain=.capapi.org; HttpOnly; Secure
x-frame-options: SAMEORIGIN
cache-control: private, max-age=14400, s-maxage=86400
x-content-type-options: nosniff
allow: GET
vary: Accept, Cookie
strict-transport-security: max-age=15768000
cf-cache-status: MISS
expect-ct: max-age=604800, report-uri="https://report-uri.cloudflare.com/cdn-cgi/beacon/expect-ct"
server: cloudflare
cf-ray: 448db4cb491591c4-EWR

{
    "count": 183149,
    "next": "https://api.case.law/v1/cases/?jurisdiction=ill&limit=10&offset=10",
    "previous": null,
    "results": [
        {
            "id": 2747110,
            "url": "https://api.case.law/v1/cases/2747110/",
            "name": "The People of the State of Illinois, Plaintiff-Appellee, v. Danny Tobin, Defendant-Appellant",
            "name_abbreviation": "People v. Tobin",
            "decision_date": "1771-10-12",
            "docket_number": "No. 70-17",
            "first_page": "538",
            "last_page": "543",
            "citations": [
                {
                    "type": "official",
                    "cite": "2 Ill. App. 3d 538"
                }
            ],
            "volume": {
                "url": "https://api.case.law/v1/volumes/32044078693009/",
                "volume_number": "2"
            },
            "reporter": {
                "url": "https://api.case.law/v1/reporters/322/",
                "full_name": "Illinois Appellate Court Reports, Third Series"
            },
            "court": {
                "url": "https://api.case.law/v1/courts/ill-app-ct/",
                "id": 8837,
                "slug": "ill-app-ct",
                "name": "Illinois Appellate Court",
                "name_abbreviation": "Ill. App. Ct."
            },
            "jurisdiction": {
                "url": "https://api.case.law/v1/jurisdictions/ill/",
                "id": 29,
                "slug": "ill",
                "name": "Ill.",
                "name_long": "Illinois",
                "whitelisted": true
            }
        },
        {
            "id": 435537,
            "url": "https://api.case.law/v1/cases/435537/",
            "name": "James A. Whitesides and others, Plaintiffs in Error, v. The People of the State of Illinois, Defendants in Error",
            "name_abbreviation": "Whitesides v. People",
            "decision_date": "1819-12",
            "docket_number": "",
            "first_page": "21",
            "last_page": "22",
            "citations": [
                {
                    "type": "official",
                    "cite": "1 Ill. 21"
                }
            ],
            "volume": {
                "url": "https://api.case.law/v1/volumes/32044057891608/",
                "volume_number": "1"
            },
            "reporter": {
                "url": "https://api.case.law/v1/reporters/1058/",
                "full_name": "Illinois Reports"
            },
            "court": {
                "url": "https://api.case.law/v1/courts/ill-1/",
                "id": 8853,
                "slug": "ill-1",
                "name": "Illinois Supreme Court",
                "name_abbreviation": "Ill."
            },
            "jurisdiction": {
                "url": "https://api.case.law/v1/jurisdictions/ill/",
                "id": 29,
                "slug": "ill",
                "name": "Ill.",
                "name_long": "Illinois",
                "whitelisted": true
            }
        },
        {
            "id": 435638,
            "url": "https://api.case.law/v1/cases/435638/",
            "name": "Amos Chipps, Appellant, v. Thomas Yancey, Appellee",
            "name_abbreviation": "Chipps v. Yancey",
            "decision_date": "1819-12",
            "docket_number": "",
            "first_page": "19",
            "last_page": "19",
            "citations": [
                {
                    "type": "official",
                    "cite": "1 Ill. 19"
                }
            ],
            "volume": {
                "url": "https://api.case.law/v1/volumes/32044057891608/",
                "volume_number": "1"
            },
            "reporter": {
                "url": "https://api.case.law/v1/reporters/1058/",
                "full_name": "Illinois Reports"
            },
            "court": {
                "url": "https://api.case.law/v1/courts/ill-1/",
                "id": 8853,
                "slug": "ill-1",
                "name": "Illinois Supreme Court",
                "name_abbreviation": "Ill."
            },
            "jurisdiction": {
                "url": "https://api.case.law/v1/jurisdictions/ill/",
                "id": 29,
                "slug": "ill",
                "name": "Ill.",
                "name_long": "Illinois",
                "whitelisted": true
            }
        },
        {
            "id": 435690,
            "url": "https://api.case.law/v1/cases/435690/",
            "name": "Jonathan Taylor, Appellant, v. Michael Sprinkle, Appellee",
            "name_abbreviation": "Taylor v. Sprinkle",
            "decision_date": "1819-12",
            "docket_number": "",
            "first_page": "17",
            "last_page": "18",
            "citations": [
                {
                    "type": "official",
                    "cite": "1 Ill. 17"
                }
            ],
            "volume": {
                "url": "https://api.case.law/v1/volumes/32044057891608/",
                "volume_number": "1"
            },
            "reporter": {
                "url": "https://api.case.law/v1/reporters/1058/",
                "full_name": "Illinois Reports"
            },
            "court": {
                "url": "https://api.case.law/v1/courts/ill-1/",
                "id": 8853,
                "slug": "ill-1",
                "name": "Illinois Supreme Court",
                "name_abbreviation": "Ill."
            },
            "jurisdiction": {
                "url": "https://api.case.law/v1/jurisdictions/ill/",
                "id": 29,
                "slug": "ill",
                "name": "Ill.",
                "name_long": "Illinois",
                "whitelisted": true
            }
        },
        {
            "id": 435710,
            "url": "https://api.case.law/v1/cases/435710/",
            "name": "François Coleen and Abraham Claypole, Appellants, v. Daniel Figgins, Appellee",
            "name_abbreviation": "Coleen v. Figgins",
            "decision_date": "1819-12",
            "docket_number": "",
            "first_page": "19",
            "last_page": "20",
            "citations": [
                {
                    "type": "official",
                    "cite": "1 Ill. 19"
                }
            ],
            "volume": {
                "url": "https://api.case.law/v1/volumes/32044057891608/",
                "volume_number": "1"
            },
            "reporter": {
                "url": "https://api.case.law/v1/reporters/1058/",
                "full_name": "Illinois Reports"
            },
            "court": {
                "url": "https://api.case.law/v1/courts/ill-1/",
                "id": 8853,
                "slug": "ill-1",
                "name": "Illinois Supreme Court",
                "name_abbreviation": "Ill."
            },
            "jurisdiction": {
                "url": "https://api.case.law/v1/jurisdictions/ill/",
                "id": 29,
                "slug": "ill",
                "name": "Ill.",
                "name_long": "Illinois",
                "whitelisted": true
            }
        },
        {
            "id": 435814,
            "url": "https://api.case.law/v1/cases/435814/",
            "name": "Elijah Smith who sues for the use of William Johnson, Appellant, v. William Bridges, Appellee",
            "name_abbreviation": "Smith v. Bridges",
            "decision_date": "1819-12",
            "docket_number": "",
            "first_page": "18",
            "last_page": "18",
            "citations": [
                {
                    "type": "official",
                    "cite": "1 Ill. 18"
                }
            ],
            "volume": {
                "url": "https://api.case.law/v1/volumes/32044057891608/",
                "volume_number": "1"
            },
            "reporter": {
                "url": "https://api.case.law/v1/reporters/1058/",
                "full_name": "Illinois Reports"
            },
            "court": {
                "url": "https://api.case.law/v1/courts/ill-1/",
                "id": 8853,
                "slug": "ill-1",
                "name": "Illinois Supreme Court",
                "name_abbreviation": "Ill."
            },
            "jurisdiction": {
                "url": "https://api.case.law/v1/jurisdictions/ill/",
                "id": 29,
                "slug": "ill",
                "name": "Ill.",
                "name_long": "Illinois",
                "whitelisted": true
            }
        },
        {
            "id": 435571,
            "url": "https://api.case.law/v1/cases/435571/",
            "name": "James Mason, Plaintiff in Error, v. N. Buckmaster, Assignee of P. Mason, Defendant in Error",
            "name_abbreviation": "Mason v. Buckmaster",
            "decision_date": "1820-07",
            "docket_number": "",
            "first_page": "27",
            "last_page": "28",
            "citations": [
                {
                    "type": "official",
                    "cite": "1 Ill. 27"
                }
            ],
            "volume": {
                "url": "https://api.case.law/v1/volumes/32044057891608/",
                "volume_number": "1"
            },
            "reporter": {
                "url": "https://api.case.law/v1/reporters/1058/",
                "full_name": "Illinois Reports"
            },
            "court": {
                "url": "https://api.case.law/v1/courts/ill-1/",
                "id": 8853,
                "slug": "ill-1",
                "name": "Illinois Supreme Court",
                "name_abbreviation": "Ill."
            },
            "jurisdiction": {
                "url": "https://api.case.law/v1/jurisdictions/ill/",
                "id": 29,
                "slug": "ill",
                "name": "Ill.",
                "name_long": "Illinois",
                "whitelisted": true
            }
        },
        {
            "id": 435689,
            "url": "https://api.case.law/v1/cases/435689/",
            "name": "Thomas Cox, Appellant, v. John McFerron, Appellee",
            "name_abbreviation": "Cox v. McFerron",
            "decision_date": "1820-07",
            "docket_number": "",
            "first_page": "28",
            "last_page": "29",
            "citations": [
                {
                    "type": "official",
                    "cite": "1 Ill. 28"
                }
            ],
            "volume": {
                "url": "https://api.case.law/v1/volumes/32044057891608/",
                "volume_number": "1"
            },
            "reporter": {
                "url": "https://api.case.law/v1/reporters/1058/",
                "full_name": "Illinois Reports"
            },
            "court": {
                "url": "https://api.case.law/v1/courts/ill-1/",
                "id": 8853,
                "slug": "ill-1",
                "name": "Illinois Supreme Court",
                "name_abbreviation": "Ill."
            },
            "jurisdiction": {
                "url": "https://api.case.law/v1/jurisdictions/ill/",
                "id": 29,
                "slug": "ill",
                "name": "Ill.",
                "name_long": "Illinois",
                "whitelisted": true
            }
        },
        {
            "id": 435701,
            "url": "https://api.case.law/v1/cases/435701/",
            "name": "James S. Beaumont, Appellant, v. - Yantz, Appellee",
            "name_abbreviation": "Beaumont v. Yantz",
            "decision_date": "1820-07",
            "docket_number": "",
            "first_page": "26",
            "last_page": "27",
            "citations": [
                {
                    "type": "official",
                    "cite": "1 Ill. 26"
                }
            ],
            "volume": {
                "url": "https://api.case.law/v1/volumes/32044057891608/",
                "volume_number": "1"
            },
            "reporter": {
                "url": "https://api.case.law/v1/reporters/1058/",
                "full_name": "Illinois Reports"
            },
            "court": {
                "url": "https://api.case.law/v1/courts/ill-1/",
                "id": 8853,
                "slug": "ill-1",
                "name": "Illinois Supreme Court",
                "name_abbreviation": "Ill."
            },
            "jurisdiction": {
                "url": "https://api.case.law/v1/jurisdictions/ill/",
                "id": 29,
                "slug": "ill",
                "name": "Ill.",
                "name_long": "Illinois",
                "whitelisted": true
            }
        },
        {
            "id": 435751,
            "url": "https://api.case.law/v1/cases/435751/",
            "name": "Joseph Cornelius, Plaintiff in Error, v. Simon Vanorsdall, Assignee of John De Rush, Defendant in Error",
            "name_abbreviation": "Cornelius v. Vanorsdall",
            "decision_date": "1820-07",
            "docket_number": "",
            "first_page": "23",
            "last_page": "23",
            "citations": [
                {
                    "type": "official",
                    "cite": "1 Ill. 23"
                }
            ],
            "volume": {
                "url": "https://api.case.law/v1/volumes/32044057891608/",
                "volume_number": "1"
            },
            "reporter": {
                "url": "https://api.case.law/v1/reporters/1058/",
                "full_name": "Illinois Reports"
            },
            "court": {
                "url": "https://api.case.law/v1/courts/ill-1/",
                "id": 8853,
                "slug": "ill-1",
                "name": "Illinois Supreme Court",
                "name_abbreviation": "Ill."
            },
            "jurisdiction": {
                "url": "https://api.case.law/v1/jurisdictions/ill/",
                "id": 29,
                "slug": "ill",
                "name": "Ill.",
                "name_long": "Illinois",
                "whitelisted": true
            }
        }
    ]
}
