HTTP/1.1 200 OK
date: Sat, 11 Aug 2018 21:13:28 GMT
content-type: application/json
set-cookie: __cfduid=d1bc6a4b67e08ab102b262503971df21b1534022007; expires=Sun, 11-Aug-19 21:13:27 GMT; path=/; domain=.capapi.org; HttpOnly; Secure
x-frame-options: SAMEORIGIN
cache-control: private, max-age=14400, s-maxage=86400
x-content-type-options: nosniff
allow: GET
vary: Accept, Cookie
strict-transport-security: max-age=15768000
cf-cache-status: MISS
expect-ct: max-age=604800, report-uri="https://report-uri.cloudflare.com/cdn-cgi/beacon/expect-ct"
server: cloudflare
cf-ray: 448db4cb491591c4-EWR

{
    "count": 183149,
    "next": "https://api.case.law/v1/cases/?jurisdiction=ill&limit=10&offset=20",
    "previous": "https://api.case.law/v1/cases/?jurisdiction=ill&limit=10",
    "results": [
        {
            "id": 435779,
            "url": "https://api.case.law/v1/cases/435779/",
            "name": "Jehu Scott, Appellant, v. John Cromwell, Appellee",
            "name_abbreviation": "Scott v. Cromwell",
            "decision_date": "1820-07",
            "docket_number": "",
            "first_page": "25",
            "last_page": "26",
            "citations": [
                {
                    "type": "official",
                    "cite": "1 Ill. 25"
                }
            ],
            "volume": {
                "url": "https://api.case.law/v1/volumes/32044057891608/",
                "volume_number": "1"
            },
            "reporter": {
                "url": "https://api.case.law/v1/reporters/1058/",
                "full_name": "Illinois Reports"
            },
            "court": {
                "url": "https://api.case.law/v1/courts/ill-1/",
                "id": 8853,
                "slug": "ill-1",
                "name": "Illinois Supreme Court",
                "name_abbreviation": "Ill."
            },
            "jurisdiction": {
                "url": "https://api.case.law/v1/jurisdictions/ill/",
                "id": 29,
                "slug": "ill",
                "name": "Ill.",
                "name_long": "Illinois",
                "whitelisted": true
            }
        },
        {
            "id": 435812,
            "url": "https://api.case.law/v1/cases/435812/",
            "name": "John Y. Sawyer, Plaintiff in Error, v. Benjamin Stephenson, Defendant in Error",
            "name_abbreviation": "Sawyer v. Stephenson",
            "decision_date": "1820-07",
            "docket_number": "",
            "first_page": "24",
            "last_page": "25",
            "citations": [
                {
                    "type": "official",
                    "cite": "1 Ill. 24"
                }
            ],
            "volume": {
                "url": "https://api.case.law/v1/volumes/32044057891608/",
                "volume_number": "1"
            },
            "reporter": {
                "url": "https://api.case.law/v1/reporters/1058/",
                "full_name": "Illinois Reports"
            },
            "court": {
                "url": "https://api.case.law/v1/courts/ill-1/",
                "id": 8853,
                "slug": "ill-1",
                "name": "Illinois Supreme Court",
                "name_abbreviation": "Ill."
            },
            "jurisdiction": {
                "url": "https://api.case.law/v1/jurisdictions/ill/",
                "id": 29,
                "slug": "ill",
                "name": "Ill.",
                "name_long": "Illinois",
                "whitelisted": true
            }
        },
        {
            "id": 435558,
            "url": "https://api.case.law/v1/cases/435558/",
            "name": "George Naught, Plaintiff in Error, v. Hezekiah Oneal, Defendant in Error",
            "name_abbreviation": "Naught v. Oneal",
            "decision_date": "1820-12",
            "docket_number": "",
            "first_page": "36",
            "last_page": "36",
            "citations": [
                {
                    "type": "official",
                    "cite": "1 Ill. 36"
                }
            ],
            "volume": {
                "url": "https://api.case.law/v1/volumes/32044057891608/",
                "volume_number": "1"
            },
            "reporter": {
                "url": "https://api.case.law/v1/reporters/1058/",
                "full_name": "Illinois Reports"
            },
            "court": {
                "url": "https://api.case.law/v1/courts/ill-1/",
                "id": 8853,
                "slug": "ill-1",
                "name": "Illinois Supreme Court",
                "name_abbreviation": "Ill."
            },
            "jurisdiction": {
                "url": "https://api.case.law/v1/jurisdictions/ill/",
                "id": 29,
                "slug": "ill",
                "name": "Ill.",
                "name_long": "Illinois",
                "whitelisted": true
            }
        },
        {
            "id": 435564,
            "url": "https://api.case.law/v1/cases/435564/",
            "name": "Joseph French, Appellant, v. John R. Creath, by George Creath, his next friend, Appellee",
            "name_abbreviation": "French v. Creath",
            "decision_date": "1820-12",
            "docket_number": "",
            "first_page": "31",
            "last_page": "32",
            "citations": [
                {
                    "type": "official",
                    "cite": "1 Ill. 31"
                }
            ],
            "volume": {
                "url": "https://api.case.law/v1/volumes/32044057891608/",
                "volume_number": "1"
            },
            "reporter": {
                "url": "https://api.case.law/v1/reporters/1058/",
                "full_name": "Illinois Reports"
            },
            "court": {
                "url": "https://api.case.law/v1/courts/ill-1/",
                "id": 8853,
                "slug": "ill-1",
                "name": "Illinois Supreme Court",
                "name_abbreviation": "Ill."
            },
            "jurisdiction": {
                "url": "https://api.case.law/v1/jurisdictions/ill/",
                "id": 29,
                "slug": "ill",
                "name": "Ill.",
                "name_long": "Illinois",
                "whitelisted": true
            }
        },
        {
            "id": 435649,
            "url": "https://api.case.law/v1/cases/435649/",
            "name": "George Blair and Wife, Plaintiffs in Error, v. Henry Sharp, Defendant in Error",
            "name_abbreviation": "Blair v. Sharp",
            "decision_date": "1820-12",
            "docket_number": "",
            "first_page": "30",
            "last_page": "31",
            "citations": [
                {
                    "type": "official",
                    "cite": "1 Ill. 30"
                }
            ],
            "volume": {
                "url": "https://api.case.law/v1/volumes/32044057891608/",
                "volume_number": "1"
            },
            "reporter": {
                "url": "https://api.case.law/v1/reporters/1058/",
                "full_name": "Illinois Reports"
            },
            "court": {
                "url": "https://api.case.law/v1/courts/ill-1/",
                "id": 8853,
                "slug": "ill-1",
                "name": "Illinois Supreme Court",
                "name_abbreviation": "Ill."
            },
            "jurisdiction": {
                "url": "https://api.case.law/v1/jurisdictions/ill/",
                "id": 29,
                "slug": "ill",
                "name": "Ill.",
                "name_long": "Illinois",
                "whitelisted": true
            }
        },
        {
            "id": 435754,
            "url": "https://api.case.law/v1/cases/435754/",
            "name": "George Brazzle and James Hawkins, Plaintiffs in Error, v. David Usher, Defendant in Error",
            "name_abbreviation": "Brazzle v. Usher",
            "decision_date": "1820-12",
            "docket_number": "",
            "first_page": "35",
            "last_page": "35",
            "citations": [
                {
                    "type": "official",
                    "cite": "1 Ill. 35"
                }
            ],
            "volume": {
                "url": "https://api.case.law/v1/volumes/32044057891608/",
                "volume_number": "1"
            },
            "reporter": {
                "url": "https://api.case.law/v1/reporters/1058/",
                "full_name": "Illinois Reports"
            },
            "court": {
                "url": "https://api.case.law/v1/courts/ill-1/",
                "id": 8853,
                "slug": "ill-1",
                "name": "Illinois Supreme Court",
                "name_abbreviation": "Ill."
            },
            "jurisdiction": {
                "url": "https://api.case.law/v1/jurisdictions/ill/",
                "id": 29,
                "slug": "ill",
                "name": "Ill.",
                "name_long": "Illinois",
                "whitelisted": true
            }
        },
        {
            "id": 435800,
            "url": "https://api.case.law/v1/cases/435800/",
            "name": "John Thornton and others, Appellants, v. George Smiley and John Bradshaw, Appellees",
            "name_abbreviation": "Thornton v. Smiley",
            "decision_date": "1820-12",
            "docket_number": "",
            "first_page": "34",
            "last_page": "34",
            "citations": [
                {
                    "type": "official",
                    "cite": "1 Ill. 34"
                }
            ],
            "volume": {
                "url": "https://api.case.law/v1/volumes/32044057891608/",
                "volume_number": "1"
            },
            "reporter": {
                "url": "https://api.case.law/v1/reporters/1058/",
                "full_name": "Illinois Reports"
            },
            "court": {
                "url": "https://api.case.law/v1/courts/ill-1/",
                "id": 8853,
                "slug": "ill-1",
                "name": "Illinois Supreme Court",
                "name_abbreviation": "Ill."
            },
            "jurisdiction": {
                "url": "https://api.case.law/v1/jurisdictions/ill/",
                "id": 29,
                "slug": "ill",
                "name": "Ill.",
                "name_long": "Illinois",
                "whitelisted": true
            }
        },
        {
            "id": 435806,
            "url": "https://api.case.law/v1/cases/435806/",
            "name": "Joseph Cornelius, Plaintiff in Error, v. John Boucher, Defendant in Error",
            "name_abbreviation": "Cornelius v. Boucher",
            "decision_date": "1820-12",
            "docket_number": "",
            "first_page": "32",
            "last_page": "33",
            "citations": [
                {
                    "type": "official",
                    "cite": "1 Ill. 32"
                }
            ],
            "volume": {
                "url": "https://api.case.law/v1/volumes/32044057891608/",
                "volume_number": "1"
            },
            "reporter": {
                "url": "https://api.case.law/v1/reporters/1058/",
                "full_name": "Illinois Reports"
            },
            "court": {
                "url": "https://api.case.law/v1/courts/ill-1/",
                "id": 8853,
                "slug": "ill-1",
                "name": "Illinois Supreme Court",
                "name_abbreviation": "Ill."
            },
            "jurisdiction": {
                "url": "https://api.case.law/v1/jurisdictions/ill/",
                "id": 29,
                "slug": "ill",
                "name": "Ill.",
                "name_long": "Illinois",
                "whitelisted": true
            }
        },
        {
            "id": 435530,
            "url": "https://api.case.law/v1/cases/435530/",
            "name": "Isaac Clark, Appellant, v. Joseph Cornelius, Appellee",
            "name_abbreviation": "Clark v. Cornelius",
            "decision_date": "1822-12",
            "docket_number": "",
            "first_page": "46",
            "last_page": "46",
            "citations": [
                {
                    "type": "official",
                    "cite": "1 Ill. 46"
                }
            ],
            "volume": {
                "url": "https://api.case.law/v1/volumes/32044057891608/",
                "volume_number": "1"
            },
            "reporter": {
                "url": "https://api.case.law/v1/reporters/1058/",
                "full_name": "Illinois Reports"
            },
            "court": {
                "url": "https://api.case.law/v1/courts/ill-1/",
                "id": 8853,
                "slug": "ill-1",
                "name": "Illinois Supreme Court",
                "name_abbreviation": "Ill."
            },
            "jurisdiction": {
                "url": "https://api.case.law/v1/jurisdictions/ill/",
                "id": 29,
                "slug": "ill",
                "name": "Ill.",
                "name_long": "Illinois",
                "whitelisted": true
            }
        },
        {
            "id": 435536,
            "url": "https://api.case.law/v1/cases/435536/",
            "name": "James Mason, Appellant, v. Robert Wash, who sues for the City Bank of New York, Appellees",
            "name_abbreviation": "Mason v. Wash",
            "decision_date": "1822-12",
            "docket_number": "",
            "first_page": "39",
            "last_page": "42",
            "citations": [
                {
                    "type": "official",
                    "cite": "1 Ill. 39"
                }
            ],
            "volume": {
                "url": "https://api.case.law/v1/volumes/32044057891608/",
                "volume_number": "1"
            },
            "reporter": {
                "url": "https://api.case.law/v1/reporters/1058/",
                "full_name": "Illinois Reports"
            },
            "court": {
                "url": "https://api.case.law/v1/courts/ill-1/",
                "id": 8853,
                "slug": "ill-1",
                "name": "Illinois Supreme Court",
                "name_abbreviation": "Ill."
            },
            "jurisdiction": {
                "url": "https://api.case.law/v1/jurisdictions/ill/",
                "id": 29,
                "slug": "ill",
                "name": "Ill.",
                "name_long": "Illinois",
                "whitelisted": true
            }
        }
    ]
}
